{"count":4675,"next":"https://freesound.org/apiv2/search/text/?&query=birds&filter=duration:[0%20TO%2032]&weights=&page=2&fields=id,name,username,previews,analysis&descriptors=rhythm.bpm","results":[{"id":387978,"name":"Birds Singing 03.wav","username":"DCPoke","previews":{"preview-lq-ogg":"https://cdn.freesound.org/previews/387/387978_6221013-lq.ogg","preview-lq-mp3":"https://cdn.freesound.org/previews/387/387978_6221013-lq.mp3","preview-hq-ogg":"https://cdn.freesound.org/previews/387/387978_6221013-hq.ogg","preview-hq-mp3":"https://cdn.freesound.org/previews/387/387978_6221013-hq.mp3"},"analysis":{"rhythm":{"bpm":110.70875010865717}}},{"id":204341,"name":"Birds in aviary.wav","username":"bunting","previews":{"preview-lq-ogg":"https://cdn.freesound.org/previews/204/204341_1806892-lq.ogg","preview-lq-mp3":"https://cdn.freesound.org/previews/204/204341_1806892-lq.mp3","preview-hq-ogg":"https://cdn.freesound.org/previews/204/204341_1806892-hq.ogg","preview-hq-mp3":"https://cdn.freesound.org/previews/204/204341_1806892-hq.mp3"},"analysis":{"rhythm":{"bpm":151.65912405156593}}},{"id":416529,"name":"Bird Whistling, Single, Robin, A.wav","username":"InspectorJ","previews":{"preview-lq-ogg":"https://cdn.freesound.org/previews/416/416529_5121236-lq.ogg","preview-lq-mp3":"https://cdn.freesound.org/previews/416/416529_5121236-lq.mp3","preview-hq-ogg":"https://cdn.freesound.org/previews/416/416529_5121236-hq.ogg","preview-hq-mp3":"https://cdn.freesound.org/previews/416/416529_5121236-hq.mp3"},"analysis":{"rhythm":{"bpm":107.9640472418327}}},{"id":581314,"name":"Bird - Pajaro 5.ogg","username":"Lunevix","previews":{"preview-lq-ogg":"https://cdn.freesound.org/previews/581/581314_4517415-lq.ogg","preview-lq-mp3":"https://cdn.freesound.org/previews/581/581314_4517415-lq.mp3","preview-hq-ogg":"https://cdn.freesound.org/previews/581/581314_4517415-hq.ogg","preview-hq-mp3":"https://cdn.freesound.org/previews/581/581314_4517415-hq.mp3"},"analysis":{"rhythm":{"bpm":0.0}}},{"id":581315,"name":"Bird - Pajaro 4.ogg","username":"Lunevix","previews":{"preview-lq-ogg":"https://cdn.freesound.org/previews/581/581315_4517415-lq.ogg","preview-lq-mp3":"https://cdn.freesound.org/previews/581/581315_4517415-lq.mp3","preview-hq-ogg":"https://cdn.freesound.org/previews/581/581315_4517415-hq.ogg","preview-hq-mp3":"https://cdn.freesound.org/previews/581/581315_4517415-hq.mp3"},"analysis":{"rhythm":{"bpm":0.0}}},{"id":581313,"name":"Bird - Pajaro 6.ogg","username":"Lunevix","previews":{"preview-lq-ogg":"https://cdn.freesound.org/previews/581/581313_4517415-lq.ogg","preview-lq-mp3":"https://cdn.freesound.org/previews/581/581313_4517415-lq.mp3","preview-hq-ogg":"https://cdn.freesound.org/previews/581/581313_4517415-hq.ogg","preview-hq-mp3":"https://cdn.freesound.org/previews/581/581313_4517415-hq.mp3"},"analysis":{"rhythm":{"bpm":0.0}}},{"id":501000,"name":"Bird - Pajaro 1.ogg","username":"Lunevix","previews":{"preview-lq-ogg":"https://cdn.freesound.org/previews/501/501000_4517415-lq.ogg","preview-lq-mp3":"https://cdn.freesound.org/previews/501/501000_4517415-lq.mp3","preview-hq-ogg":"https://cdn.freesound.org/previews/501/501000_4517415-hq.ogg","preview-hq-mp3":"https://cdn.freesound.org/previews/501/501000_4517415-hq.mp3"},"analysis":{"rhythm":{"bpm":156.6051021821434}}},{"id":500998,"name":"Bird - Pajaro 3.ogg","username":"Lunevix","previews":{"preview-lq-ogg":"https://cdn.freesound.org/previews/500/500998_4517415-lq.ogg","preview-lq-mp3":"https://cdn.freesound.org/previews/500/500998_4517415-lq.mp3","preview-hq-ogg":"https://cdn.freesound.org/previews/500/500998_4517415-hq.ogg","preview-hq-mp3":"https://cdn.freesound.org/previews/500/500998_4517415-hq.mp3"},"analysis":{"rhythm":{"bpm":161.49901094222545}}},{"id":500999,"name":"Bird - Pajaro 2.ogg","username":"Lunevix","previews":{"preview-lq-ogg":"https://cdn.freesound.org/previews/500/500999_4517415-lq.ogg","preview-lq-mp3":"https://cdn.freesound.org/previews/500/500999_4517415-lq.mp3","preview-hq-ogg":"https://cdn.freesound.org/previews/500/500999_4517415-hq.ogg","preview-hq-mp3":"https://cdn.freesound.org/previews/500/500999_4517415-hq.mp3"},"analysis":{"rhythm":{"bpm":151.99908326648819}}},{"id":73617,"name":"lakeside birds 2.wav","username":"jus","previews":{"preview-lq-ogg":"https://cdn.freesound.org/previews/73/73617_157342-lq.ogg","preview-lq-mp3":"https://cdn.freesound.org/previews/73/73617_157342-lq.mp3","preview-hq-ogg":"https://cdn.freesound.org/previews/73/73617_157342-hq.ogg","preview-hq-mp3":"https://cdn.freesound.org/previews/73/73617_157342-hq.mp3"},"analysis":{"rhythm":{"bpm":111.58446423603634}}},{"id":398736,"name":"birds 01.wav","username":"Anthousai","previews":{"preview-lq-ogg":"https://cdn.freesound.org/previews/398/398736_5923045-lq.ogg","preview-lq-mp3":"https://cdn.freesound.org/previews/398/398736_5923045-lq.mp3","preview-hq-ogg":"https://cdn.freesound.org/previews/398/398736_5923045-hq.ogg","preview-hq-mp3":"https://cdn.freesound.org/previews/398/398736_5923045-hq.mp3"},"analysis":{"rhythm":{"bpm":149.5562603352396}}},{"id":341848,"name":"Weird Bird","username":"CartesianTheatre","previews":{"preview-lq-ogg":"https://cdn.freesound.org/previews/341/341848_5103623-lq.ogg","preview-lq-mp3":"https://cdn.freesound.org/previews/341/341848_5103623-lq.mp3","preview-hq-ogg":"https://cdn.freesound.org/previews/341/341848_5103623-hq.ogg","preview-hq-mp3":"https://cdn.freesound.org/previews/341/341848_5103623-hq.mp3"},"analysis":{"rhythm":{"bpm":115.58949943925215}}},{"id":513713,"name":"birds chirping","username":"Luke100000","previews":{"preview-lq-ogg":"https://cdn.freesound.org/previews/513/513713_3211895-lq.ogg","preview-lq-mp3":"https://cdn.freesound.org/previews/513/513713_3211895-lq.mp3","preview-hq-ogg":"https://cdn.freesound.org/previews/513/513713_3211895-hq.ogg","preview-hq-mp3":"https://cdn.freesound.org/previews/513/513713_3211895-hq.mp3"},"analysis":{"rhythm":{"bpm":104.25016988089808}}},{"id":166218,"name":"Whip Birds","username":"abcopen","previews":{"preview-lq-ogg":"https://cdn.freesound.org/previews/166/166218_2915582-lq.ogg","preview-lq-mp3":"https://cdn.freesound.org/previews/166/166218_2915582-lq.mp3","preview-hq-ogg":"https://cdn.freesound.org/previews/166/166218_2915582-hq.ogg","preview-hq-mp3":"https://cdn.freesound.org/previews/166/166218_2915582-hq.mp3"},"analysis":{"rhythm":{"bpm":53.83496371747052}}},{"id":519061,"name":"bird05.wav","username":"l0vebliss","previews":{"preview-lq-ogg":"https://cdn.freesound.org/previews/519/519061_3189774-lq.ogg","preview-lq-mp3":"https://cdn.freesound.org/previews/519/519061_3189774-lq.mp3","preview-hq-ogg":"https://cdn.freesound.org/previews/519/519061_3189774-hq.ogg","preview-hq-mp3":"https://cdn.freesound.org/previews/519/519061_3189774-hq.mp3"},"analysis":{"rhythm":{"bpm":114.86645218153714}}}],"previous":null}